{
  "type": "script",
  "seleniumVersion": "2",
  "formatVersion": 2,
  "steps": [
    {
      "type": "get",
      "url": "http://author.uat-direct.ucms.fairfax.com.au/libs/granite/core/content/login.html?resource=%2F&$$login$$=%24%24login%24%24"
    },
    {
      "type": "setElementText",
      "locator": {
        "type": "id",
        "value": "username"
      },
      "text": ""
    },
    {
      "type": "setElementText",
      "locator": {
        "type": "id",
        "value": "password"
      },
      "text": ""
    },
    {
      "type": "clickElement",
      "locator": {
        "type": "css selector",
        "value": "button.primary"
      }
    },
    {
      "type": "get",
      "url": "http://author.uat-direct.ucms.fairfax.com.au/cf#/etc/author-util.html"
    },
    {
      "type": "clickElement",
      "locator": {
        "type": "xpath",
        "value": "//div/div[1]/div/div/div[1]/div/div/div[1]/div[1]/div[1]/ul/li[3]/a[2]/em/span/span"
      }
    },
    {
      "type": "clickElement",
      "locator": {
        "type": "xpath",
        "value": "//table[@id='cfTab-Articles-searchButton']//button[.='Search Articles']"
      }
    },
    {
      "type": "waitForElementPresent",
      "locator": {
        "type": "xpath",
        "value": "//div[@id='cfTab-Articles-QueryBox-dataview']/div[21]/div[1]/div/ul/li/div[2]"
      }
    },
    {
      "type": "clickElement",
      "locator": {
        "type": "xpath",
        "value": "//div[@id='cfTab-Articles-QueryBox-dataview']/div[21]/div[1]/div/ul/li/div[2]"
      }
    },
    {
      "type": "clickElement",
      "locator": {
        "type": "xpath",
        "value": "//div/div[1]/div/div/div[1]/div/div/div[1]/div[1]/div[1]/ul/li[4]/a[2]/em/span/span"
      }
    },
    {
      "type": "clickElement",
      "locator": {
        "type": "xpath",
        "value": "//table[@id='searchButton']//button[.='Search Images']"
      }
    },
    {
      "type": "clickElement",
      "locator": {
        "type": "css selector",
        "value": "div.thumb"
      }
    },
    {
      "type": "switchToFrame",
      "identifier": "cq-cf-frame"
    },
    {
      "type": "pause",
      "waitTime": ""
    },
    {
      "type": "sendKeysToElement",
      "locator": {
        "type": "id",
        "value": "cq-author-util-headline-text"
      },
      "text": "TEST AL ##3##"
    },
    {
      "type": "sendKeysToElement",
      "locator": {
        "type": "id",
        "value": "cq-author-util-index-intro-text"
      },
      "text": "Intro test"
    },
    {
      "type": "clickElement",
      "locator": {
        "type": "xpath",
        "value": "//div/div[1]/div/div/div[1]/div/form/div[9]/div/div/div/div[1]/div/div/div/div[1]/div/img"
      }
    },
    {
      "type": "sendKeysToElement",
      "locator": {
        "type": "id",
        "value": "cq-author-util-source-system"
      },
      "text": "AF"
    },
    {
      "type": "pause",
      "waitTime": ""
    },
    {
      "type": "sendKeysToElement",
      "locator": {
        "type": "id",
        "value": "cq-author-util-source-system"
      },
      "text": "R"
    },
    {
      "type": "pause",
      "waitTime": ""
    },
    {
      "type": "clickElement",
      "locator": {
        "type": "css selector",
        "value": "div.x-combo-list-item.x-combo-selected"
      }
    },
    {
      "type": "sendKeysToElement",
      "locator": {
        "type": "id",
        "value": "cq-author-util-print-slug-text"
      },
      "text": "PrintSlug"
    },
    {
      "type": "switchToFrameByIndex",
      "index": "0"
    },
    {
      "type": "waitForElementPresent",
      "locator": {
        "type": "xpath",
        "value": "//html/body"
      }
    },
    {
      "type": "sendKeysToElement",
      "locator": {
        "type": "xpath",
        "value": "//html/body"
      },
      "text": "Body text"
    },
    {
      "type": "switchToDefaultContent"
    },
    {
      "type": "clickElement",
      "locator": {
        "type": "css selector",
        "value": "#save-article-button button"
      }
    }
  ],
  "data": {
    "configs": {},
    "source": "none"
  },
  "inputs": [],
  "timeoutSeconds": 60
}